Capítulo 3 dplyr | Tidyverse - aula 1 - Introdução
…
flores %>% 
  count(Species)

## # A tibble: 3 x 2
##   Species        n
##   <fct>      <int>
## 1 setosa        50
## 2 versicolor    50
## 3 virginica     50

flores %>% 
  add_count(Species)

## # A tibble: 150 x 6
##    Sepal.Length Sepal.Width Petal.Length Petal.Width Species     n
##           <dbl>       <dbl>        <dbl>       <dbl> <fct>   <int>
##  1          5.1         3.5          1.4         0.2 setosa     50
##  2          4.9         3            1.4         0.2 setosa     50
##  3          4.7         3.2          1.3         0.2 setosa     50
##  4          4.6         3.1          1.5         0.2 setosa     50
##  5          5           3.6          1.4         0.2 setosa     50
##  6          5.4         3.9          1.7         0.4 setosa     50
##  7          4.6         3.4          1.4         0.3 setosa     50
##  8          5           3.4          1.5         0.2 setosa     50
##  9          4.4         2.9          1.4         0.2 setosa     50
## 10          4.9         3.1          1.5         0.1 setosa     50
## # … with 140 more rows

3.2 arrange() - rearranja as linhas em função da variável especificada

flores %>% 
  arrange(Species)

## # A tibble: 150 x 5
##    Sepal.Length Sepal.Width Petal.Length Petal.Width Species
##           <dbl>       <dbl>        <dbl>       <dbl> <fct>  
##  1          5.1         3.5          1.4         0.2 setosa 
##  2          4.9         3            1.4         0.2 setosa 
##  3          4.7         3.2          1.3         0.2 setosa 
##  4          4.6         3.1          1.5         0.2 setosa 
##  5          5           3.6          1.4         0.2 setosa 
##  6          5.4         3.9          1.7         0.4 setosa 
##  7          4.6         3.4          1.4         0.3 setosa 
##  8          5           3.4          1.5         0.2 setosa 
##  9          4.4         2.9          1.4         0.2 setosa 
## 10          4.9         3.1          1.5         0.1 setosa 
## # … with 140 more rows

flores %>% 
  arrange(desc(Species))

## # A tibble: 150 x 5
##    Sepal.Length Sepal.Width Petal.Length Petal.Width Species  
##           <dbl>       <dbl>        <dbl>       <dbl> <fct>    
##  1          6.3         3.3          6           2.5 virginica
##  2          5.8         2.7          5.1         1.9 virginica
##  3          7.1         3            5.9         2.1 virginica
##  4          6.3         2.9          5.6         1.8 virginica
##  5          6.5         3            5.8         2.2 virginica
##  6          7.6         3            6.6         2.1 virginica
##  7          4.9         2.5          4.5         1.7 virginica
##  8          7.3         2.9          6.3         1.8 virginica
##  9          6.7         2.5          5.8         1.8 virginica
## 10          7.2         3.6          6.1         2.5 virginica
## # … with 140 more rows

flores %>% 
  arrange(factor(Species, levels = c("versicolor", "setosa", "virginica")))

## # A tibble: 150 x 5
##    Sepal.Length Sepal.Width Petal.Length Petal.Width Species   
##           <dbl>       <dbl>        <dbl>       <dbl> <fct>     
##  1          7           3.2          4.7         1.4 versicolor
##  2          6.4         3.2          4.5         1.5 versicolor
##  3          6.9         3.1          4.9         1.5 versicolor
##  4          5.5         2.3          4           1.3 versicolor
##  5          6.5         2.8          4.6         1.5 versicolor
##  6          5.7         2.8          4.5         1.3 versicolor
##  7          6.3         3.3          4.7         1.6 versicolor
##  8          4.9         2.4          3.3         1   versicolor
##  9          6.6         2.9          4.6         1.3 versicolor
## 10          5.2         2.7          3.9         1.4 versicolor
## # … with 140 more rows

3.3 bind_cols() - une planilhas em colunas

parte1 <- flores[,1:2]
parte2 <- flores[,3:5]

bind_cols(parte1, parte2)

## # A tibble: 150 x 5
##    Sepal.Length Sepal.Width Petal.Length Petal.Width Species
##           <dbl>       <dbl>        <dbl>       <dbl> <fct>  
##  1          5.1         3.5          1.4         0.2 setosa 
##  2          4.9         3            1.4         0.2 setosa 
##  3          4.7         3.2          1.3         0.2 setosa 
##  4          4.6         3.1          1.5         0.2 setosa 
##  5          5           3.6          1.4         0.2 setosa 
##  6          5.4         3.9          1.7         0.4 setosa 
##  7          4.6         3.4          1.4         0.3 setosa 
##  8          5           3.4          1.5         0.2 setosa 
##  9          4.4         2.9          1.4         0.2 setosa 
## 10          4.9         3.1          1.5         0.1 setosa 
## # … with 140 more rows

3.4 bind_rows() - une planilhas em linhas

parte1 <- flores[1:10,]
parte2 <- flores[11:150,]

bind_rows(parte1, parte2)

## # A tibble: 150 x 5
##    Sepal.Length Sepal.Width Petal.Length Petal.Width Species
##           <dbl>       <dbl>        <dbl>       <dbl> <fct>  
##  1          5.1         3.5          1.4         0.2 setosa 
##  2          4.9         3            1.4         0.2 setosa 
##  3          4.7         3.2          1.3         0.2 setosa 
##  4          4.6         3.1          1.5         0.2 setosa 
##  5          5           3.6          1.4         0.2 setosa 
##  6          5.4         3.9          1.7         0.4 setosa 
##  7          4.6         3.4          1.4         0.3 setosa 
##  8          5           3.4          1.5         0.2 setosa 
##  9          4.4         2.9          1.4         0.2 setosa 
## 10          4.9         3.1          1.5         0.1 setosa 
## # … with 140 more rows

3.5 distinct() - remove as linhas que são exatamente iguais

flores

## # A tibble: 150 x 5
##    Sepal.Length Sepal.Width Petal.Length Petal.Width Species
##           <dbl>       <dbl>        <dbl>       <dbl> <fct>  
##  1          5.1         3.5          1.4         0.2 setosa 
##  2          4.9         3            1.4         0.2 setosa 
##  3          4.7         3.2          1.3         0.2 setosa 
##  4          4.6         3.1          1.5         0.2 setosa 
##  5          5           3.6          1.4         0.2 setosa 
##  6          5.4         3.9          1.7         0.4 setosa 
##  7          4.6         3.4          1.4         0.3 setosa 
##  8          5           3.4          1.5         0.2 setosa 
##  9          4.4         2.9          1.4         0.2 setosa 
## 10          4.9         3.1          1.5         0.1 setosa 
## # … with 140 more rows

flores %>% 
  distinct()

## # A tibble: 149 x 5
##    Sepal.Length Sepal.Width Petal.Length Petal.Width Species
##           <dbl>       <dbl>        <dbl>       <dbl> <fct>  
##  1          5.1         3.5          1.4         0.2 setosa 
##  2          4.9         3            1.4         0.2 setosa 
##  3          4.7         3.2          1.3         0.2 setosa 
##  4          4.6         3.1          1.5         0.2 setosa 
##  5          5           3.6          1.4         0.2 setosa 
##  6          5.4         3.9          1.7         0.4 setosa 
##  7          4.6         3.4          1.4         0.3 setosa 
##  8          5           3.4          1.5         0.2 setosa 
##  9          4.4         2.9          1.4         0.2 setosa 
## 10          4.9         3.1          1.5         0.1 setosa 
## # … with 139 more rows
…
## # A tibble: 3 x 2
##   Species        n
##   <fct>      <int>
## 1 setosa        50
## 2 versicolor    50
## 3 virginica     49

3.6 filter() - filtra as linhas que satisfação alguma condição

flores %>% 
  filter(Species == "setosa")

## # A tibble: 50 x 5
##    Sepal.Length Sepal.Width Petal.Length Petal.Width Species
##           <dbl>       <dbl>        <dbl>       <dbl> <fct>  
##  1          5.1         3.5          1.4         0.2 setosa 
##  2          4.9         3            1.4         0.2 setosa 
##  3          4.7         3.2          1.3         0.2 setosa 
##  4          4.6         3.1          1.5         0.2 setosa 
##  5          5           3.6          1.4         0.2 setosa 
##  6          5.4         3.9          1.7         0.4 setosa 
##  7          4.6         3.4          1.4         0.3 setosa 
##  8          5           3.4          1.5         0.2 setosa 
##  9          4.4         2.9          1.4         0.2 setosa 
## 10          4.9         3.1          1.5         0.1 setosa 
## # … with 40 more rows

flores %>% 
  filter(Species %in% c("setosa", "virginica"))

## # A tibble: 100 x 5
##    Sepal.Length Sepal.Width Petal.Length Petal.Width Species
##           <dbl>       <dbl>        <dbl>       <dbl> <fct>  
##  1          5.1         3.5          1.4         0.2 setosa 
##  2          4.9         3            1.4         0.2 setosa 
##  3          4.7         3.2          1.3         0.2 setosa 
##  4          4.6         3.1          1.5         0.2 setosa 
##  5          5           3.6          1.4         0.2 setosa 
##  6          5.4         3.9          1.7         0.4 setosa 
##  7          4.6         3.4          1.4         0.3 setosa 
##  8          5           3.4          1.5         0.2 setosa 
##  9          4.4         2.9          1.4         0.2 setosa 
## 10          4.9         3.1          1.5         0.1 setosa 
## # … with 90 more rows

flores %>% 
  filter(Sepal.Length >= mean(Sepal.Length))

## # A tibble: 70 x 5
##    Sepal.Length Sepal.Width Petal.Length Petal.Width Species   
##           <dbl>       <dbl>        <dbl>       <dbl> <fct>     
##  1          7           3.2          4.7         1.4 versicolor
##  2          6.4         3.2          4.5         1.5 versicolor
##  3          6.9         3.1          4.9         1.5 versicolor
##  4          6.5         2.8          4.6         1.5 versicolor
##  5          6.3         3.3          4.7         1.6 versicolor
##  6          6.6         2.9          4.6         1.3 versicolor
##  7          5.9         3            4.2         1.5 versicolor
##  8          6           2.2          4           1   versicolor
##  9          6.1         2.9          4.7         1.4 versicolor
## 10          6.7         3.1          4.4         1.4 versicolor
## # … with 60 more rows

flores %>% 
  filter(Species == "setosa") %>% 
  filter(Sepal.Length >= mean(Sepal.Length))

## # A tibble: 22 x 5
##    Sepal.Length Sepal.Width Petal.Length Petal.Width Species
##           <dbl>       <dbl>        <dbl>       <dbl> <fct>  
##  1          5.1         3.5          1.4         0.2 setosa 
##  2          5.4         3.9          1.7         0.4 setosa 
##  3          5.4         3.7          1.5         0.2 setosa 
##  4          5.8         4            1.2         0.2 setosa 
##  5          5.7         4.4          1.5         0.4 setosa 
##  6          5.4         3.9          1.3         0.4 setosa 
##  7          5.1         3.5          1.4         0.3 setosa 
##  8          5.7         3.8          1.7         0.3 setosa 
##  9          5.1         3.8          1.5         0.3 setosa 
## 10          5.4         3.4          1.7         0.2 setosa 
## # … with 12 more rows

flores %>% 
  filter(Petal.Length >= mean(Petal.Length) & Petal.Width >= mean(Petal.Width))

## # A tibble: 89 x 5
##    Sepal.Length Sepal.Width Petal.Length Petal.Width Species   
##           <dbl>       <dbl>        <dbl>       <dbl> <fct>     
##  1          7           3.2          4.7         1.4 versicolor
##  2          6.4         3.2          4.5         1.5 versicolor
##  3          6.9         3.1          4.9         1.5 versicolor
##  4          5.5         2.3          4           1.3 versicolor
##  5          6.5         2.8          4.6         1.5 versicolor
##  6          5.7         2.8          4.5         1.3 versicolor
##  7          6.3         3.3          4.7         1.6 versicolor
##  8          6.6         2.9          4.6         1.3 versicolor
##  9          5.2         2.7          3.9         1.4 versicolor
## 10          5.9         3            4.2         1.5 versicolor
## # … with 79 more rows
…
## # A tibble: 2 x 2
##   Species        n
##   <fct>      <int>
## 1 versicolor    39
## 2 virginica     50

3.7 group_by() - agrupa as linhas em função dos valores de alguma variável

#Ver esta função juntamente com mutate(), transmute() e summarise()

flores %>% 
  group_by(Species)

## # A tibble: 150 x 5
## # Groups:   Species [3]
##    Sepal.Length Sepal.Width Petal.Length Petal.Width Species
##           <dbl>       <dbl>        <dbl>       <dbl> <fct>  
##  1          5.1         3.5          1.4         0.2 setosa 
##  2          4.9         3            1.4         0.2 setosa 
##  3          4.7         3.2          1.3         0.2 setosa 
##  4          4.6         3.1          1.5         0.2 setosa 
##  5          5           3.6          1.4         0.2 setosa 
##  6          5.4         3.9          1.7         0.4 setosa 
##  7          4.6         3.4          1.4         0.3 setosa 
##  8          5           3.4          1.5         0.2 setosa 
##  9          4.4         2.9          1.4         0.2 setosa 
## 10          4.9         3.1          1.5         0.1 setosa 
## # … with 140 more rows

3.8 mutate() e transmute() - adiciona novas variáveis e preserva as existentes; adiciona novas variáveis e não preserva as existentes

flores %>%
  mutate(teste = Petal.Length + Sepal.Length)

## # A tibble: 150 x 6
##    Sepal.Length Sepal.Width Petal.Length Petal.Width Species teste
##           <dbl>       <dbl>        <dbl>       <dbl> <fct>   <dbl>
##  1          5.1         3.5          1.4         0.2 setosa    6.5
##  2          4.9         3            1.4         0.2 setosa    6.3
##  3          4.7         3.2          1.3         0.2 setosa    6  
##  4          4.6         3.1          1.5         0.2 setosa    6.1
##  5          5           3.6          1.4         0.2 setosa    6.4
##  6          5.4         3.9          1.7         0.4 setosa    7.1
##  7          4.6         3.4          1.4         0.3 setosa    6  
##  8          5           3.4          1.5         0.2 setosa    6.5
##  9          4.4         2.9          1.4         0.2 setosa    5.8
## 10          4.9         3.1          1.5         0.1 setosa    6.4
## # … with 140 more rows

flores %>%
  group_by(Species) %>% 
  mutate(PL_media = mean(Petal.Length))

## # A tibble: 150 x 6
## # Groups:   Species [3]
##    Sepal.Length Sepal.Width Petal.Length Petal.Width Species PL_media
##           <dbl>       <dbl>        <dbl>       <dbl> <fct>      <dbl>
##  1          5.1         3.5          1.4         0.2 setosa      1.46
##  2          4.9         3            1.4         0.2 setosa      1.46
##  3          4.7         3.2          1.3         0.2 setosa      1.46
##  4          4.6         3.1          1.5         0.2 setosa      1.46
##  5          5           3.6          1.4         0.2 setosa      1.46
##  6          5.4         3.9          1.7         0.4 setosa      1.46
##  7          4.6         3.4          1.4         0.3 setosa      1.46
##  8          5           3.4          1.5         0.2 setosa      1.46
##  9          4.4         2.9          1.4         0.2 setosa      1.46
## 10          4.9         3.1          1.5         0.1 setosa      1.46
## # … with 140 more rows

flores %>%
  group_by(Species) %>% 
  transmute(PL.média = mean(Petal.Length))

## # A tibble: 150 x 2
## # Groups:   Species [3]
##    Species PL.média
##    <fct>      <dbl>
##  1 setosa      1.46
##  2 setosa      1.46
##  3 setosa      1.46
##  4 setosa      1.46
##  5 setosa      1.46
##  6 setosa      1.46
##  7 setosa      1.46
##  8 setosa      1.46
##  9 setosa      1.46
## 10 setosa      1.46
## # … with 140 more rows

flores %>%
  group_by(Species) %>% 
  transmute(PL.média = mean(Petal.Length), 
            SL.média = mean(Sepal.Length))

## # A tibble: 150 x 3
## # Groups:   Species [3]
##    Species PL.média SL.média
##    <fct>      <dbl>    <dbl>
##  1 setosa      1.46     5.01
##  2 setosa      1.46     5.01
##  3 setosa      1.46     5.01
##  4 setosa      1.46     5.01
##  5 setosa      1.46     5.01
##  6 setosa      1.46     5.01
##  7 setosa      1.46     5.01
##  8 setosa      1.46     5.01
##  9 setosa      1.46     5.01
## 10 setosa      1.46     5.01
## # … with 140 more rows

3.9 na_if() - Substitui o valor especificado por NA

flores %>% 
  mutate(Species = na_if(Species, "setosa"))

## # A tibble: 150 x 5
##    Sepal.Length Sepal.Width Petal.Length Petal.Width Species
##           <dbl>       <dbl>        <dbl>       <dbl> <fct>  
##  1          5.1         3.5          1.4         0.2 <NA>   
##  2          4.9         3            1.4         0.2 <NA>   
##  3          4.7         3.2          1.3         0.2 <NA>   
##  4          4.6         3.1          1.5         0.2 <NA>   
##  5          5           3.6          1.4         0.2 <NA>   
##  6          5.4         3.9          1.7         0.4 <NA>   
##  7          4.6         3.4          1.4         0.3 <NA>   
##  8          5           3.4          1.5         0.2 <NA>   
##  9          4.4         2.9          1.4         0.2 <NA>   
## 10          4.9         3.1          1.5         0.1 <NA>   
## # … with 140 more rows

flores %>%
  mutate(Petal.Length = na_if(Petal.Length, 1.4))

## # A tibble: 150 x 5
##    Sepal.Length Sepal.Width Petal.Length Petal.Width Species
##           <dbl>       <dbl>        <dbl>       <dbl> <fct>  
##  1          5.1         3.5         NA           0.2 setosa 
##  2          4.9         3           NA           0.2 setosa 
##  3          4.7         3.2          1.3         0.2 setosa 
##  4          4.6         3.1          1.5         0.2 setosa 
##  5          5           3.6         NA           0.2 setosa 
##  6          5.4         3.9          1.7         0.4 setosa 
##  7          4.6         3.4         NA           0.3 setosa 
##  8          5           3.4          1.5         0.2 setosa 
##  9          4.4         2.9         NA           0.2 setosa 
## 10          4.9         3.1          1.5         0.1 setosa 
## # … with 140 more rows

flores %>%
  mutate(Sepal.Length = na_if(Sepal.Length, 5.1))

## # A tibble: 150 x 5
##    Sepal.Length Sepal.Width Petal.Length Petal.Width Species
##           <dbl>       <dbl>        <dbl>       <dbl> <fct>  
##  1         NA           3.5          1.4         0.2 setosa 
##  2          4.9         3            1.4         0.2 setosa 
##  3          4.7         3.2          1.3         0.2 setosa 
##  4          4.6         3.1          1.5         0.2 setosa 
##  5          5           3.6          1.4         0.2 setosa 
##  6          5.4         3.9          1.7         0.4 setosa 
##  7          4.6         3.4          1.4         0.3 setosa 
##  8          5           3.4          1.5         0.2 setosa 
##  9          4.4         2.9          1.4         0.2 setosa 
## 10          4.9         3.1          1.5         0.1 setosa 
## # … with 140 more rows
…
