Capítulo 2 tibble | Tidyverse - aula 1 - Introdução
…
            Tidyverse - aula 1 - Introdução

Capítulo 2 tibble

2.1 as_tibble() - converte um objeto do tipo matriz ou data frame para tbl_df

obj1 <- carros
obj2 <- carros %>%
  data.frame()

# ["linhas", "colunas"]
obj1[, 1]

## # A tibble: 32 x 1
##      mpg
##    <dbl>
##  1  21  
##  2  21  
##  3  22.8
##  4  21.4
##  5  18.7
##  6  18.1
##  7  14.3
##  8  24.4
##  9  22.8
## 10  19.2
## # … with 22 more rows

obj2[, 1]

##  [1] 21.0 21.0 22.8 21.4 18.7 18.1 14.3 24.4 22.8 19.2 17.8 16.4 17.3 15.2 10.4
## [16] 10.4 14.7 32.4 30.4 33.9 21.5 15.5 15.2 13.3 19.2 27.3 26.0 30.4 15.8 19.7
## [31] 15.0 21.4

2.2 add_column() - adiciona uma coluna nova a planilha

carros %>%
  add_column(teste = 0)

## # A tibble: 32 x 12
##      mpg   cyl  disp    hp  drat    wt  qsec    vs    am  gear  carb teste
##    <dbl> <dbl> <dbl> <dbl> <dbl> <dbl> <dbl> <dbl> <dbl> <dbl> <dbl> <dbl>
##  1  21       6  160    110  3.9   2.62  16.5     0     1     4     4     0
##  2  21       6  160    110  3.9   2.88  17.0     0     1     4     4     0
##  3  22.8     4  108     93  3.85  2.32  18.6     1     1     4     1     0
##  4  21.4     6  258    110  3.08  3.22  19.4     1     0     3     1     0
##  5  18.7     8  360    175  3.15  3.44  17.0     0     0     3     2     0
##  6  18.1     6  225    105  2.76  3.46  20.2     1     0     3     1     0
##  7  14.3     8  360    245  3.21  3.57  15.8     0     0     3     4     0
##  8  24.4     4  147.    62  3.69  3.19  20       1     0     4     2     0
##  9  22.8     4  141.    95  3.92  3.15  22.9     1     0     4     2     0
## 10  19.2     6  168.   123  3.92  3.44  18.3     1     0     4     4     0
## # … with 22 more rows

carros

## # A tibble: 32 x 11
##      mpg   cyl  disp    hp  drat    wt  qsec    vs    am  gear  carb
##  * <dbl> <dbl> <dbl> <dbl> <dbl> <dbl> <dbl> <dbl> <dbl> <dbl> <dbl>
##  1  21       6  160    110  3.9   2.62  16.5     0     1     4     4
##  2  21       6  160    110  3.9   2.88  17.0     0     1     4     4
##  3  22.8     4  108     93  3.85  2.32  18.6     1     1     4     1
##  4  21.4     6  258    110  3.08  3.22  19.4     1     0     3     1
##  5  18.7     8  360    175  3.15  3.44  17.0     0     0     3     2
##  6  18.1     6  225    105  2.76  3.46  20.2     1     0     3     1
##  7  14.3     8  360    245  3.21  3.57  15.8     0     0     3     4
##  8  24.4     4  147.    62  3.69  3.19  20       1     0     4     2
##  9  22.8     4  141.    95  3.92  3.15  22.9     1     0     4     2
## 10  19.2     6  168.   123  3.92  3.44  18.3     1     0     4     4
## # … with 22 more rows

carros %>% 
  add_column(teste = 0, .before = "mpg")

## # A tibble: 32 x 12
##    teste   mpg   cyl  disp    hp  drat    wt  qsec    vs    am  gear  carb
##    <dbl> <dbl> <dbl> <dbl> <dbl> <dbl> <dbl> <dbl> <dbl> <dbl> <dbl> <dbl>
##  1     0  21       6  160    110  3.9   2.62  16.5     0     1     4     4
##  2     0  21       6  160    110  3.9   2.88  17.0     0     1     4     4
##  3     0  22.8     4  108     93  3.85  2.32  18.6     1     1     4     1
##  4     0  21.4     6  258    110  3.08  3.22  19.4     1     0     3     1
##  5     0  18.7     8  360    175  3.15  3.44  17.0     0     0     3     2
##  6     0  18.1     6  225    105  2.76  3.46  20.2     1     0     3     1
##  7     0  14.3     8  360    245  3.21  3.57  15.8     0     0     3     4
##  8     0  24.4     4  147.    62  3.69  3.19  20       1     0     4     2
##  9     0  22.8     4  141.    95  3.92  3.15  22.9     1     0     4     2
## 10     0  19.2     6  168.   123  3.92  3.44  18.3     1     0     4     4
## # … with 22 more rows

2.3 add_row() - adiciona uma nova linha a planilha

carros %>%
  add_row()

## # A tibble: 33 x 11
##      mpg   cyl  disp    hp  drat    wt  qsec    vs    am  gear  carb
##  * <dbl> <dbl> <dbl> <dbl> <dbl> <dbl> <dbl> <dbl> <dbl> <dbl> <dbl>
##  1  21       6  160    110  3.9   2.62  16.5     0     1     4     4
##  2  21       6  160    110  3.9   2.88  17.0     0     1     4     4
##  3  22.8     4  108     93  3.85  2.32  18.6     1     1     4     1
##  4  21.4     6  258    110  3.08  3.22  19.4     1     0     3     1
##  5  18.7     8  360    175  3.15  3.44  17.0     0     0     3     2
##  6  18.1     6  225    105  2.76  3.46  20.2     1     0     3     1
##  7  14.3     8  360    245  3.21  3.57  15.8     0     0     3     4
##  8  24.4     4  147.    62  3.69  3.19  20       1     0     4     2
##  9  22.8     4  141.    95  3.92  3.15  22.9     1     0     4     2
## 10  19.2     6  168.   123  3.92  3.44  18.3     1     0     4     4
## # … with 23 more rows

carros

## # A tibble: 32 x 11
##      mpg   cyl  disp    hp  drat    wt  qsec    vs    am  gear  carb
##  * <dbl> <dbl> <dbl> <dbl> <dbl> <dbl> <dbl> <dbl> <dbl> <dbl> <dbl>
##  1  21       6  160    110  3.9   2.62  16.5     0     1     4     4
##  2  21       6  160    110  3.9   2.88  17.0     0     1     4     4
##  3  22.8     4  108     93  3.85  2.32  18.6     1     1     4     1
##  4  21.4     6  258    110  3.08  3.22  19.4     1     0     3     1
##  5  18.7     8  360    175  3.15  3.44  17.0     0     0     3     2
##  6  18.1     6  225    105  2.76  3.46  20.2     1     0     3     1
##  7  14.3     8  360    245  3.21  3.57  15.8     0     0     3     4
##  8  24.4     4  147.    62  3.69  3.19  20       1     0     4     2
##  9  22.8     4  141.    95  3.92  3.15  22.9     1     0     4     2
## 10  19.2     6  168.   123  3.92  3.44  18.3     1     0     4     4
## # … with 22 more rows

carros %>% 
  add_row(.before = 1)

## # A tibble: 33 x 11
##      mpg   cyl  disp    hp  drat    wt  qsec    vs    am  gear  carb
##  * <dbl> <dbl> <dbl> <dbl> <dbl> <dbl> <dbl> <dbl> <dbl> <dbl> <dbl>
##  1  NA      NA   NA     NA NA    NA     NA      NA    NA    NA    NA
##  2  21       6  160    110  3.9   2.62  16.5     0     1     4     4
##  3  21       6  160    110  3.9   2.88  17.0     0     1     4     4
##  4  22.8     4  108     93  3.85  2.32  18.6     1     1     4     1
##  5  21.4     6  258    110  3.08  3.22  19.4     1     0     3     1
##  6  18.7     8  360    175  3.15  3.44  17.0     0     0     3     2
##  7  18.1     6  225    105  2.76  3.46  20.2     1     0     3     1
##  8  14.3     8  360    245  3.21  3.57  15.8     0     0     3     4
##  9  24.4     4  147.    62  3.69  3.19  20       1     0     4     2
## 10  22.8     4  141.    95  3.92  3.15  22.9     1     0     4     2
## # … with 23 more rows
…
2.5 rownames_to_column() - adiciona o nome das linhas como uma coluna

carros %>% 
  rownames_to_column(var = "teste")

## # A tibble: 32 x 12
##    teste         mpg   cyl  disp    hp  drat    wt  qsec    vs    am  gear  carb
##    <chr>       <dbl> <dbl> <dbl> <dbl> <dbl> <dbl> <dbl> <dbl> <dbl> <dbl> <dbl>
##  1 Mazda RX4    21       6  160    110  3.9   2.62  16.5     0     1     4     4
##  2 Mazda RX4 …  21       6  160    110  3.9   2.88  17.0     0     1     4     4
##  3 Datsun 710   22.8     4  108     93  3.85  2.32  18.6     1     1     4     1
##  4 Hornet 4 D…  21.4     6  258    110  3.08  3.22  19.4     1     0     3     1
##  5 Hornet Spo…  18.7     8  360    175  3.15  3.44  17.0     0     0     3     2
##  6 Valiant      18.1     6  225    105  2.76  3.46  20.2     1     0     3     1
##  7 Duster 360   14.3     8  360    245  3.21  3.57  15.8     0     0     3     4
##  8 Merc 240D    24.4     4  147.    62  3.69  3.19  20       1     0     4     2
##  9 Merc 230     22.8     4  141.    95  3.92  3.15  22.9     1     0     4     2
## 10 Merc 280     19.2     6  168.   123  3.92  3.44  18.3     1     0     4     4
## # … with 22 more rows
…
carros[1:2, ]

## # A tibble: 2 x 11
##     mpg   cyl  disp    hp  drat    wt  qsec    vs    am  gear  carb
##   <dbl> <dbl> <dbl> <dbl> <dbl> <dbl> <dbl> <dbl> <dbl> <dbl> <dbl>
## 1    21     6   160   110   3.9  2.62  16.5     0     1     4     4
## 2    21     6   160   110   3.9  2.88  17.0     0     1     4     4

carros[, 1]

## # A tibble: 32 x 1
##      mpg
##    <dbl>
##  1  21  
##  2  21  
##  3  22.8
##  4  21.4
##  5  18.7
##  6  18.1
##  7  14.3
##  8  24.4
##  9  22.8
## 10  19.2
## # … with 22 more rows

carros[, "mpg"]

## # A tibble: 32 x 1
##      mpg
##    <dbl>
##  1  21  
##  2  21  
##  3  22.8
##  4  21.4
##  5  18.7
##  6  18.1
##  7  14.3
##  8  24.4
##  9  22.8
## 10  19.2
## # … with 22 more rows
…
carros[["mpg"]]

##  [1] 21.0 21.0 22.8 21.4 18.7 18.1 14.3 24.4 22.8 19.2 17.8 16.4 17.3 15.2 10.4
## [16] 10.4 14.7 32.4 30.4 33.9 21.5 15.5 15.2 13.3 19.2 27.3 26.0 30.4 15.8 19.7
## [31] 15.0 21.4

carros$mpg

##  [1] 21.0 21.0 22.8 21.4 18.7 18.1 14.3 24.4 22.8 19.2 17.8 16.4 17.3 15.2 10.4
## [16] 10.4 14.7 32.4 30.4 33.9 21.5 15.5 15.2 13.3 19.2 27.3 26.0 30.4 15.8 19.7
## [31] 15.0 21.4

carros[, c("mpg", "cyl")]

## # A tibble: 32 x 2
##      mpg   cyl
##    <dbl> <dbl>
##  1  21       6
##  2  21       6
##  3  22.8     4
##  4  21.4     6
##  5  18.7     8
##  6  18.1     6
##  7  14.3     8
##  8  24.4     4
##  9  22.8     4
## 10  19.2     6
## # … with 22 more rows
