Capítulo 4 tidyr | Tidyverse - aula 1 - Introdução
…
            Tidyverse - aula 1 - Introdução

Capítulo 4 tidyr

4.1 drop_na() - remove as linhas com NA

starwars %>% 
  select(hair_color) %>% 
  drop_na()

## # A tibble: 82 x 1
##    hair_color   
##    <chr>        
##  1 blond        
##  2 none         
##  3 brown        
##  4 brown, grey  
##  5 brown        
##  6 black        
##  7 auburn, white
##  8 blond        
##  9 auburn, grey 
## 10 brown        
## # … with 72 more rows
…
4.2 replace_na() - Substitui os valores de NA por outro valor

starwars %>% 
  replace_na(list(hair_color = "orange"))

## # A tibble: 87 x 14
##    name    height  mass hair_color  skin_color eye_color birth_year sex   gender
##    <chr>    <int> <dbl> <chr>       <chr>      <chr>          <dbl> <chr> <chr> 
##  1 Luke S…    172    77 blond       fair       blue            19   male  mascu…
##  2 C-3PO      167    75 orange      gold       yellow         112   none  mascu…
##  3 R2-D2       96    32 orange      white, bl… red             33   none  mascu…
##  4 Darth …    202   136 none        white      yellow          41.9 male  mascu…
##  5 Leia O…    150    49 brown       light      brown           19   fema… femin…
##  6 Owen L…    178   120 brown, grey light      blue            52   male  mascu…
##  7 Beru W…    165    75 brown       light      blue            47   fema… femin…
##  8 R5-D4       97    32 orange      white, red red             NA   none  mascu…
##  9 Biggs …    183    84 black       light      brown           24   male  mascu…
## 10 Obi-Wa…    182    77 auburn, wh… fair       blue-gray       57   male  mascu…
## # … with 77 more rows, and 5 more variables: homeworld <chr>, species <chr>,
## #   films <list>, vehicles <list>, starships <list>
…
starwars[1:10,] %>%
  select(skin_color, homeworld, mass) %>%
  pivot_wider(names_from = homeworld, values_from = mass) %>%
  pivot_longer(cols = 2:5, names_to = "homerworld", values_to = "mass")

## Warning: Values are not uniquely identified; output will contain list-cols.
## * Use `values_fn = list` to suppress this warning.
## * Use `values_fn = length` to identify where the duplicates arise
## * Use `values_fn = {summary_fun}` to summarise duplicates

## # A tibble: 24 x 3
##    skin_color  homerworld mass     
##    <chr>       <chr>      <list>   
##  1 fair        Tatooine   <dbl [1]>
##  2 fair        Naboo      <NULL>   
##  3 fair        Alderaan   <NULL>   
##  4 fair        Stewjon    <dbl [1]>
##  5 gold        Tatooine   <dbl [1]>
##  6 gold        Naboo      <NULL>   
##  7 gold        Alderaan   <NULL>   
##  8 gold        Stewjon    <NULL>   
##  9 white, blue Tatooine   <NULL>   
## 10 white, blue Naboo      <dbl [1]>
## # … with 14 more rows
…
4.5 fill() - Preenche as células com NA com o valor posterior ou anterior da mesma coluna

starwars %>% 
  select(hair_color) %>% 
  fill(hair_color)

## # A tibble: 87 x 1
##    hair_color   
##    <chr>        
##  1 blond        
##  2 blond        
##  3 blond        
##  4 none         
##  5 brown        
##  6 brown, grey  
##  7 brown        
##  8 brown        
##  9 black        
## 10 auburn, white
## # … with 77 more rows
